[gd_scene load_steps=6 format=2]

[ext_resource path="res://menus/stage_transition/stage_transition.gd" type="Script" id=1]
[ext_resource path="res://fonts/kenpixel_high.ttf" type="DynamicFontData" id=2]
[ext_resource path="res://menus/transitions/FadeTransition.tscn" type="PackedScene" id=3]

[sub_resource type="DynamicFont" id=1]

size = 128
use_mipmaps = false
use_filter = false
font_data = ExtResource( 2 )
_sections_unfolded = [ "Font", "Settings" ]

[sub_resource type="Animation" id=2]

resource_name = "anim"
length = 1.4
loop = true
step = 0.1
tracks/0/type = "value"
tracks/0/path = NodePath(".:custom_colors/font_color")
tracks/0/interp = 2
tracks/0/loop_wrap = true
tracks/0/imported = false
tracks/0/enabled = true
tracks/0/keys = {
"times": PoolRealArray( 0, 0.2, 0.4, 0.6, 0.8, 1, 1.2, 1.4 ),
"transitions": PoolRealArray( 1, 1, 1, 1, 1, 1, 1, 1 ),
"update": 0,
"values": [ Color( 0.580392, 0, 0.827451, 1 ), Color( 0.294118, 0, 0.509804, 1 ), Color( 0, 0, 1, 1 ), Color( 0, 1, 0, 1 ), Color( 1, 1, 0, 1 ), Color( 1, 0.498039, 0, 1 ), Color( 1, 0, 0, 1 ), Color( 0.580392, 0, 0.827451, 1 ) ]
}

[node name="StageTransition" type="Control" index="0"]

pause_mode = 2
anchor_left = 0.0
anchor_top = 0.0
anchor_right = 1.0
anchor_bottom = 1.0
rect_pivot_offset = Vector2( 0, 0 )
rect_clip_content = false
mouse_filter = 0
mouse_default_cursor_shape = 0
size_flags_horizontal = 1
size_flags_vertical = 1
script = ExtResource( 1 )
_sections_unfolded = [ "Pause" ]

[node name="Death_Label" type="Label" parent="." index="0"]

visible = false
anchor_left = 0.5
anchor_top = 0.5
anchor_right = 0.5
anchor_bottom = 0.5
margin_left = -160.0
margin_top = -56.0
margin_right = 160.0
margin_bottom = 56.0
rect_pivot_offset = Vector2( 0, 0 )
rect_clip_content = false
mouse_filter = 2
mouse_default_cursor_shape = 0
size_flags_horizontal = 1
size_flags_vertical = 4
custom_fonts/font = SubResource( 1 )
custom_colors/font_color = Color( 0.84375, 0, 0, 1 )
text = "You Died"
percent_visible = 1.0
lines_skipped = 0
max_lines_visible = -1
_sections_unfolded = [ "custom_colors", "custom_fonts" ]

[node name="Win_Label" type="Label" parent="." index="1"]

editor/display_folded = true
visible = false
anchor_left = 0.5
anchor_top = 0.5
anchor_right = 0.5
anchor_bottom = 0.5
margin_left = -144.0
margin_top = -56.0
margin_right = 144.0
margin_bottom = 56.0
rect_pivot_offset = Vector2( 0, 0 )
rect_clip_content = false
mouse_filter = 2
mouse_default_cursor_shape = 0
size_flags_horizontal = 1
size_flags_vertical = 4
custom_fonts/font = SubResource( 1 )
custom_colors/font_color = Color( 1, 0.879474, 0, 1 )
text = "You win"
percent_visible = 1.0
lines_skipped = 0
max_lines_visible = -1
_sections_unfolded = [ "Rect", "custom_colors", "custom_fonts" ]

[node name="AnimationPlayer" type="AnimationPlayer" parent="Win_Label" index="0"]

root_node = NodePath("..")
autoplay = "anim"
playback_process_mode = 1
playback_default_blend_time = 0.0
playback_speed = 1.0
anims/anim = SubResource( 2 )
blend_times = [  ]

[node name="FadeTransition" parent="." index="2" instance=ExtResource( 3 )]

[node name="Timer" type="Timer" parent="." index="3"]

process_mode = 1
wait_time = 2.0
one_shot = true
autostart = false

[connection signal="timeout" from="Timer" to="." method="_on_Timer_timeout"]


