[gd_scene load_steps=3 format=2]

[ext_resource path="res://entities/actors/player/PlayerBase.tscn" type="PackedScene" id=1]
[ext_resource path="res://entities/components/umbrella/Umbrella.tscn" type="PackedScene" id=2]

[node name="PlayerBase" instance=ExtResource( 1 )]

[node name="umbrella_sprite" parent="." index="1" instance=ExtResource( 2 )]


